…
#Create a variable containing the activity dataset with the NAs removed
activity_data_clean <- activity_data[-which(is.na(activity_data$steps)),]

#Find the total and average number of steps per day
activity_data_grouped <- activity_data_clean %>% 
  group_by(date) %>% 
  summarize(total_steps = sum(steps), average_steps = mean(steps))

activity_data_grouped
```

```
## # A tibble: 53 x 3
##    date       total_steps average_steps
##    <fct>            <int>         <dbl>
##  1 2012-10-02         126         0.438
##  2 2012-10-03       11352        39.4  
##  3 2012-10-04       12116        42.1  
##  4 2012-10-05       13294        46.2  
##  5 2012-10-06       15420        53.5  
##  6 2012-10-07       11015        38.2  
##  7 2012-10-09       12811        44.5  
##  8 2012-10-10        9900        34.4  
##  9 2012-10-11       10304        35.8  
## 10 2012-10-12       17382        60.4  
## # ... with 43 more rows
```
…
